{
     "LocalDBDirectory" :   "/home/svd/devPMATCH/build/EJDB",
     "LocalDBName" :   "localdb",
     "host_name" :   "localhost",
     "port" :   9090,
     "protocol" :   "-b",
     "transport" :   "-s"
}
